<mxfile host="app.diagrams.net" modified="2022-09-29T04:20:07.436Z" agent="5.0 (Windows NT 10.0; Win64; x64) AppleWebKit/537.36 (KHTML, like Gecko) Chrome/105.0.0.0 Safari/537.36" etag="44m-c9dmCc_tlldNFogl" version="20.3.7" type="gitlab">
  <diagram name="Page-1" id="03018318-947c-dd8e-b7a3-06fadd420f32">
    <mxGraphModel dx="743" dy="737" grid="1" gridSize="10" guides="1" tooltips="1" connect="1" arrows="1" fold="1" page="1" pageScale="1" pageWidth="1100" pageHeight="850" background="none" math="0" shadow="0">
      <root>
        <mxCell id="0" />
        <mxCell id="1" parent="0" />
        <mxCell id="677b7b8949515195-1" value="" style="whiteSpace=wrap;html=1;rounded=0;shadow=0;labelBackgroundColor=none;strokeColor=#000000;strokeWidth=1;fillColor=none;fontFamily=Verdana;fontSize=12;fontColor=#000000;align=center;comic=1;" parent="1" vertex="1">
          <mxGeometry x="20" y="20" width="1060" height="810" as="geometry" />
        </mxCell>
        <mxCell id="677b7b8949515195-2" value="ALL NEWS" style="whiteSpace=wrap;html=1;rounded=0;shadow=0;labelBackgroundColor=none;strokeWidth=1;fontFamily=Verdana;fontSize=28;align=center;comic=1;" parent="1" vertex="1">
          <mxGeometry x="40" y="60" width="190" height="50" as="geometry" />
        </mxCell>
        <mxCell id="677b7b8949515195-8" value="" style="whiteSpace=wrap;html=1;rounded=0;shadow=0;labelBackgroundColor=none;strokeWidth=1;fillColor=none;fontFamily=Verdana;fontSize=12;align=center;comic=1;" parent="1" vertex="1">
          <mxGeometry x="70" y="278" width="250" height="295" as="geometry" />
        </mxCell>
        <mxCell id="677b7b8949515195-9" value="" style="line;strokeWidth=1;html=1;rounded=0;shadow=0;labelBackgroundColor=none;fillColor=none;fontFamily=Verdana;fontSize=14;fontColor=#000000;align=center;comic=1;" parent="1" vertex="1">
          <mxGeometry x="20" y="140" width="1060" height="10" as="geometry" />
        </mxCell>
        <mxCell id="ush0oXd2aA2Hq_zGnFEJ-1" value="LOGO" style="whiteSpace=wrap;html=1;rounded=0;shadow=0;labelBackgroundColor=none;strokeWidth=1;fontFamily=Verdana;fontSize=28;align=center;comic=1;" parent="1" vertex="1">
          <mxGeometry x="455" y="60" width="190" height="50" as="geometry" />
        </mxCell>
        <mxCell id="ush0oXd2aA2Hq_zGnFEJ-2" value="LOGIN" style="whiteSpace=wrap;html=1;rounded=0;shadow=0;labelBackgroundColor=none;strokeWidth=1;fontFamily=Verdana;fontSize=28;align=center;comic=1;" parent="1" vertex="1">
          <mxGeometry x="780" y="60" width="120" height="50" as="geometry" />
        </mxCell>
        <mxCell id="ush0oXd2aA2Hq_zGnFEJ-3" value="SIGN UP" style="whiteSpace=wrap;html=1;rounded=0;shadow=0;labelBackgroundColor=none;strokeWidth=1;fontFamily=Verdana;fontSize=28;align=center;comic=1;" parent="1" vertex="1">
          <mxGeometry x="920" y="60" width="140" height="50" as="geometry" />
        </mxCell>
        <mxCell id="ush0oXd2aA2Hq_zGnFEJ-6" value="NEWS" style="whiteSpace=wrap;html=1;rounded=0;shadow=0;labelBackgroundColor=none;strokeWidth=1;fontFamily=Verdana;fontSize=28;align=center;comic=1;" parent="1" vertex="1">
          <mxGeometry x="190" y="340" width="120" height="50" as="geometry" />
        </mxCell>
        <mxCell id="ush0oXd2aA2Hq_zGnFEJ-7" value="DETAILS" style="whiteSpace=wrap;html=1;rounded=0;shadow=0;labelBackgroundColor=none;strokeWidth=1;fontFamily=Verdana;fontSize=28;align=center;comic=1;" parent="1" vertex="1">
          <mxGeometry x="110" y="500" width="150" height="50" as="geometry" />
        </mxCell>
        <mxCell id="ush0oXd2aA2Hq_zGnFEJ-8" value="" style="whiteSpace=wrap;html=1;rounded=0;shadow=0;labelBackgroundColor=none;strokeWidth=1;fillColor=none;fontFamily=Verdana;fontSize=12;align=center;comic=1;" parent="1" vertex="1">
          <mxGeometry x="425" y="278" width="250" height="295" as="geometry" />
        </mxCell>
        <mxCell id="ush0oXd2aA2Hq_zGnFEJ-9" value="NEWS" style="whiteSpace=wrap;html=1;rounded=0;shadow=0;labelBackgroundColor=none;strokeWidth=1;fontFamily=Verdana;fontSize=28;align=center;comic=1;" parent="1" vertex="1">
          <mxGeometry x="535" y="340" width="120" height="50" as="geometry" />
        </mxCell>
        <mxCell id="ush0oXd2aA2Hq_zGnFEJ-10" value="DETAILS" style="whiteSpace=wrap;html=1;rounded=0;shadow=0;labelBackgroundColor=none;strokeWidth=1;fontFamily=Verdana;fontSize=28;align=center;comic=1;" parent="1" vertex="1">
          <mxGeometry x="455" y="500" width="150" height="50" as="geometry" />
        </mxCell>
        <mxCell id="ush0oXd2aA2Hq_zGnFEJ-11" value="" style="whiteSpace=wrap;html=1;rounded=0;shadow=0;labelBackgroundColor=none;strokeWidth=1;fillColor=none;fontFamily=Verdana;fontSize=12;align=center;comic=1;" parent="1" vertex="1">
          <mxGeometry x="760" y="278" width="250" height="295" as="geometry" />
        </mxCell>
        <mxCell id="ush0oXd2aA2Hq_zGnFEJ-12" value="NEWS" style="whiteSpace=wrap;html=1;rounded=0;shadow=0;labelBackgroundColor=none;strokeWidth=1;fontFamily=Verdana;fontSize=28;align=center;comic=1;" parent="1" vertex="1">
          <mxGeometry x="870" y="333" width="120" height="50" as="geometry" />
        </mxCell>
        <mxCell id="ush0oXd2aA2Hq_zGnFEJ-13" value="DETAILS" style="whiteSpace=wrap;html=1;rounded=0;shadow=0;labelBackgroundColor=none;strokeWidth=1;fontFamily=Verdana;fontSize=28;align=center;comic=1;" parent="1" vertex="1">
          <mxGeometry x="790" y="493" width="150" height="50" as="geometry" />
        </mxCell>
        <mxCell id="ush0oXd2aA2Hq_zGnFEJ-16" value="" style="line;strokeWidth=1;html=1;rounded=0;shadow=0;labelBackgroundColor=none;fillColor=none;fontFamily=Verdana;fontSize=14;fontColor=#000000;align=center;comic=1;" parent="1" vertex="1">
          <mxGeometry x="20" y="660" width="1060" height="10" as="geometry" />
        </mxCell>
        <mxCell id="ush0oXd2aA2Hq_zGnFEJ-17" value="LOGO" style="whiteSpace=wrap;html=1;rounded=0;shadow=0;labelBackgroundColor=none;strokeWidth=1;fontFamily=Verdana;fontSize=28;align=center;comic=1;" parent="1" vertex="1">
          <mxGeometry x="50" y="720" width="120" height="50" as="geometry" />
        </mxCell>
        <mxCell id="DY-1BtCG_yMDKFojsaPS-1" value="" style="whiteSpace=wrap;html=1;rounded=0;shadow=0;labelBackgroundColor=none;strokeColor=#000000;strokeWidth=1;fillColor=none;fontFamily=Verdana;fontSize=12;fontColor=#000000;align=center;comic=1;" vertex="1" parent="1">
          <mxGeometry x="20" y="880" width="1060" height="810" as="geometry" />
        </mxCell>
        <mxCell id="DY-1BtCG_yMDKFojsaPS-2" value="ALL NEWS" style="whiteSpace=wrap;html=1;rounded=0;shadow=0;labelBackgroundColor=none;strokeWidth=1;fontFamily=Verdana;fontSize=28;align=center;comic=1;" vertex="1" parent="1">
          <mxGeometry x="40" y="920" width="190" height="50" as="geometry" />
        </mxCell>
        <mxCell id="DY-1BtCG_yMDKFojsaPS-3" value="" style="line;strokeWidth=1;html=1;rounded=0;shadow=0;labelBackgroundColor=none;fillColor=none;fontFamily=Verdana;fontSize=14;fontColor=#000000;align=center;comic=1;" vertex="1" parent="1">
          <mxGeometry x="20" y="1000" width="1060" height="10" as="geometry" />
        </mxCell>
        <mxCell id="DY-1BtCG_yMDKFojsaPS-4" value="LOGO" style="whiteSpace=wrap;html=1;rounded=0;shadow=0;labelBackgroundColor=none;strokeWidth=1;fontFamily=Verdana;fontSize=28;align=center;comic=1;" vertex="1" parent="1">
          <mxGeometry x="870" y="920" width="190" height="50" as="geometry" />
        </mxCell>
        <mxCell id="DY-1BtCG_yMDKFojsaPS-5" value="" style="line;strokeWidth=1;html=1;rounded=0;shadow=0;labelBackgroundColor=none;fillColor=none;fontFamily=Verdana;fontSize=14;fontColor=#000000;align=center;comic=1;" vertex="1" parent="1">
          <mxGeometry x="20" y="1520" width="1060" height="10" as="geometry" />
        </mxCell>
        <mxCell id="DY-1BtCG_yMDKFojsaPS-6" value="LOGO" style="whiteSpace=wrap;html=1;rounded=0;shadow=0;labelBackgroundColor=none;strokeWidth=1;fontFamily=Verdana;fontSize=28;align=center;comic=1;" vertex="1" parent="1">
          <mxGeometry x="50" y="1580" width="120" height="50" as="geometry" />
        </mxCell>
        <mxCell id="DY-1BtCG_yMDKFojsaPS-7" value="" style="whiteSpace=wrap;html=1;rounded=0;shadow=0;labelBackgroundColor=none;strokeWidth=1;fillColor=none;fontFamily=Verdana;fontSize=12;align=center;comic=1;" vertex="1" parent="1">
          <mxGeometry x="340" y="1075" width="420" height="400" as="geometry" />
        </mxCell>
        <mxCell id="DY-1BtCG_yMDKFojsaPS-8" value="" style="whiteSpace=wrap;html=1;rounded=0;shadow=0;labelBackgroundColor=none;strokeWidth=1;fontFamily=Verdana;fontSize=28;align=center;comic=1;" vertex="1" parent="1">
          <mxGeometry x="360" y="1210" width="330" height="30" as="geometry" />
        </mxCell>
        <mxCell id="DY-1BtCG_yMDKFojsaPS-9" value="" style="whiteSpace=wrap;html=1;rounded=0;shadow=0;labelBackgroundColor=none;strokeWidth=1;fontFamily=Verdana;fontSize=28;align=center;comic=1;" vertex="1" parent="1">
          <mxGeometry x="360" y="1310" width="330" height="30" as="geometry" />
        </mxCell>
        <mxCell id="DY-1BtCG_yMDKFojsaPS-11" value="&lt;font style=&quot;font-size: 18px;&quot;&gt;&lt;b&gt;Email address&lt;/b&gt;&lt;/font&gt;" style="text;html=1;strokeColor=none;fillColor=none;align=center;verticalAlign=middle;whiteSpace=wrap;rounded=0;" vertex="1" parent="1">
          <mxGeometry x="370" y="1170" width="130" height="30" as="geometry" />
        </mxCell>
        <mxCell id="DY-1BtCG_yMDKFojsaPS-12" value="&lt;font style=&quot;font-size: 18px;&quot;&gt;&lt;b&gt;Password&lt;/b&gt;&lt;/font&gt;" style="text;html=1;strokeColor=none;fillColor=none;align=center;verticalAlign=middle;whiteSpace=wrap;rounded=0;" vertex="1" parent="1">
          <mxGeometry x="350" y="1275" width="130" height="30" as="geometry" />
        </mxCell>
        <mxCell id="DY-1BtCG_yMDKFojsaPS-13" value="&lt;font style=&quot;font-size: 18px;&quot;&gt;&lt;b&gt;LOG INTO YOUR ACCOUNT&lt;/b&gt;&lt;/font&gt;" style="text;html=1;strokeColor=none;fillColor=none;align=center;verticalAlign=middle;whiteSpace=wrap;rounded=0;" vertex="1" parent="1">
          <mxGeometry x="430" y="1110" width="245" height="30" as="geometry" />
        </mxCell>
        <mxCell id="DY-1BtCG_yMDKFojsaPS-14" value="&lt;font style=&quot;font-size: 18px;&quot;&gt;LOGIN&lt;/font&gt;" style="whiteSpace=wrap;html=1;rounded=0;shadow=0;labelBackgroundColor=none;strokeWidth=1;fontFamily=Verdana;fontSize=28;align=center;comic=1;strokeColor=#3333FF;fillColor=#3333FF;" vertex="1" parent="1">
          <mxGeometry x="360" y="1400" width="80" height="30" as="geometry" />
        </mxCell>
        <mxCell id="DY-1BtCG_yMDKFojsaPS-15" value="&lt;span style=&quot;font-size: 18px;&quot;&gt;&lt;b&gt;Agile software management system&lt;/b&gt;&lt;/span&gt;" style="text;html=1;strokeColor=#CCCCCC;fillColor=none;align=center;verticalAlign=middle;whiteSpace=wrap;rounded=0;" vertex="1" parent="1">
          <mxGeometry x="20" y="800" width="360" height="30" as="geometry" />
        </mxCell>
        <mxCell id="DY-1BtCG_yMDKFojsaPS-16" value="&lt;span style=&quot;font-size: 18px;&quot;&gt;&lt;b&gt;Agile software management system&lt;/b&gt;&lt;/span&gt;" style="text;html=1;strokeColor=#CCCCCC;fillColor=none;align=center;verticalAlign=middle;whiteSpace=wrap;rounded=0;" vertex="1" parent="1">
          <mxGeometry x="15" y="1650" width="360" height="30" as="geometry" />
        </mxCell>
        <mxCell id="DY-1BtCG_yMDKFojsaPS-17" value="&lt;span style=&quot;font-size: 18px;&quot;&gt;&lt;b&gt;c E-pharmacist Autumn Semester 2022&lt;/b&gt;&lt;/span&gt;" style="text;html=1;strokeColor=#CCCCCC;fillColor=none;align=center;verticalAlign=middle;whiteSpace=wrap;rounded=0;" vertex="1" parent="1">
          <mxGeometry x="710" y="790" width="360" height="30" as="geometry" />
        </mxCell>
        <mxCell id="DY-1BtCG_yMDKFojsaPS-18" value="&lt;span style=&quot;font-size: 18px;&quot;&gt;&lt;b&gt;c E-pharmacist Autumn Semester 2022&lt;/b&gt;&lt;/span&gt;" style="text;html=1;strokeColor=#CCCCCC;fillColor=none;align=center;verticalAlign=middle;whiteSpace=wrap;rounded=0;" vertex="1" parent="1">
          <mxGeometry x="705" y="1640" width="360" height="30" as="geometry" />
        </mxCell>
        <mxCell id="DY-1BtCG_yMDKFojsaPS-19" value="" style="whiteSpace=wrap;html=1;rounded=0;shadow=0;labelBackgroundColor=none;strokeColor=#000000;strokeWidth=1;fillColor=none;fontFamily=Verdana;fontSize=12;fontColor=#000000;align=center;comic=1;" vertex="1" parent="1">
          <mxGeometry x="10" y="1740" width="1060" height="810" as="geometry" />
        </mxCell>
        <mxCell id="DY-1BtCG_yMDKFojsaPS-20" value="ALL NEWS" style="whiteSpace=wrap;html=1;rounded=0;shadow=0;labelBackgroundColor=none;strokeWidth=1;fontFamily=Verdana;fontSize=28;align=center;comic=1;" vertex="1" parent="1">
          <mxGeometry x="30" y="1780" width="190" height="50" as="geometry" />
        </mxCell>
        <mxCell id="DY-1BtCG_yMDKFojsaPS-21" value="" style="line;strokeWidth=1;html=1;rounded=0;shadow=0;labelBackgroundColor=none;fillColor=none;fontFamily=Verdana;fontSize=14;fontColor=#000000;align=center;comic=1;" vertex="1" parent="1">
          <mxGeometry x="10" y="1860" width="1060" height="10" as="geometry" />
        </mxCell>
        <mxCell id="DY-1BtCG_yMDKFojsaPS-22" value="LOGO" style="whiteSpace=wrap;html=1;rounded=0;shadow=0;labelBackgroundColor=none;strokeWidth=1;fontFamily=Verdana;fontSize=28;align=center;comic=1;" vertex="1" parent="1">
          <mxGeometry x="860" y="1780" width="190" height="50" as="geometry" />
        </mxCell>
        <mxCell id="DY-1BtCG_yMDKFojsaPS-23" value="" style="line;strokeWidth=1;html=1;rounded=0;shadow=0;labelBackgroundColor=none;fillColor=none;fontFamily=Verdana;fontSize=14;fontColor=#000000;align=center;comic=1;" vertex="1" parent="1">
          <mxGeometry x="10" y="2380" width="1060" height="10" as="geometry" />
        </mxCell>
        <mxCell id="DY-1BtCG_yMDKFojsaPS-24" value="LOGO" style="whiteSpace=wrap;html=1;rounded=0;shadow=0;labelBackgroundColor=none;strokeWidth=1;fontFamily=Verdana;fontSize=28;align=center;comic=1;" vertex="1" parent="1">
          <mxGeometry x="40" y="2440" width="120" height="50" as="geometry" />
        </mxCell>
        <mxCell id="DY-1BtCG_yMDKFojsaPS-25" value="" style="whiteSpace=wrap;html=1;rounded=0;shadow=0;labelBackgroundColor=none;strokeWidth=1;fillColor=none;fontFamily=Verdana;fontSize=12;align=center;comic=1;" vertex="1" parent="1">
          <mxGeometry x="330" y="1890" width="420" height="480" as="geometry" />
        </mxCell>
        <mxCell id="DY-1BtCG_yMDKFojsaPS-26" value="" style="whiteSpace=wrap;html=1;rounded=0;shadow=0;labelBackgroundColor=none;strokeWidth=1;fontFamily=Verdana;fontSize=28;align=center;comic=1;" vertex="1" parent="1">
          <mxGeometry x="350" y="2070" width="330" height="30" as="geometry" />
        </mxCell>
        <mxCell id="DY-1BtCG_yMDKFojsaPS-27" value="" style="whiteSpace=wrap;html=1;rounded=0;shadow=0;labelBackgroundColor=none;strokeWidth=1;fontFamily=Verdana;fontSize=28;align=center;comic=1;" vertex="1" parent="1">
          <mxGeometry x="350" y="2140" width="330" height="30" as="geometry" />
        </mxCell>
        <mxCell id="DY-1BtCG_yMDKFojsaPS-28" value="&lt;font style=&quot;font-size: 18px;&quot;&gt;&lt;b&gt;Email address&lt;/b&gt;&lt;/font&gt;" style="text;html=1;strokeColor=none;fillColor=none;align=center;verticalAlign=middle;whiteSpace=wrap;rounded=0;" vertex="1" parent="1">
          <mxGeometry x="360" y="2030" width="130" height="30" as="geometry" />
        </mxCell>
        <mxCell id="DY-1BtCG_yMDKFojsaPS-29" value="&lt;font style=&quot;font-size: 18px;&quot;&gt;&lt;b&gt;Password&lt;/b&gt;&lt;/font&gt;" style="text;html=1;strokeColor=none;fillColor=none;align=center;verticalAlign=middle;whiteSpace=wrap;rounded=0;" vertex="1" parent="1">
          <mxGeometry x="340" y="2110" width="130" height="30" as="geometry" />
        </mxCell>
        <mxCell id="DY-1BtCG_yMDKFojsaPS-30" value="&lt;font style=&quot;font-size: 18px;&quot;&gt;&lt;b&gt;CREATE A NEW ACCOUNT&lt;/b&gt;&lt;/font&gt;" style="text;html=1;strokeColor=none;fillColor=none;align=center;verticalAlign=middle;whiteSpace=wrap;rounded=0;" vertex="1" parent="1">
          <mxGeometry x="417.5" y="1920" width="245" height="30" as="geometry" />
        </mxCell>
        <mxCell id="DY-1BtCG_yMDKFojsaPS-31" value="&lt;font style=&quot;font-size: 18px;&quot;&gt;SIGNUP&lt;/font&gt;" style="whiteSpace=wrap;html=1;rounded=0;shadow=0;labelBackgroundColor=none;strokeWidth=1;fontFamily=Verdana;fontSize=28;align=center;comic=1;strokeColor=#3333FF;fillColor=#3333FF;" vertex="1" parent="1">
          <mxGeometry x="350" y="2320" width="80" height="30" as="geometry" />
        </mxCell>
        <mxCell id="DY-1BtCG_yMDKFojsaPS-32" value="&lt;span style=&quot;font-size: 18px;&quot;&gt;&lt;b&gt;Agile software management system&lt;/b&gt;&lt;/span&gt;" style="text;html=1;strokeColor=#CCCCCC;fillColor=none;align=center;verticalAlign=middle;whiteSpace=wrap;rounded=0;" vertex="1" parent="1">
          <mxGeometry x="5" y="2510" width="360" height="30" as="geometry" />
        </mxCell>
        <mxCell id="DY-1BtCG_yMDKFojsaPS-33" value="&lt;span style=&quot;font-size: 18px;&quot;&gt;&lt;b&gt;c E-pharmacist Autumn Semester 2022&lt;/b&gt;&lt;/span&gt;" style="text;html=1;strokeColor=#CCCCCC;fillColor=none;align=center;verticalAlign=middle;whiteSpace=wrap;rounded=0;" vertex="1" parent="1">
          <mxGeometry x="695" y="2500" width="360" height="30" as="geometry" />
        </mxCell>
        <mxCell id="DY-1BtCG_yMDKFojsaPS-34" value="" style="whiteSpace=wrap;html=1;rounded=0;shadow=0;labelBackgroundColor=none;strokeWidth=1;fontFamily=Verdana;fontSize=28;align=center;comic=1;" vertex="1" parent="1">
          <mxGeometry x="350" y="2000" width="330" height="30" as="geometry" />
        </mxCell>
        <mxCell id="DY-1BtCG_yMDKFojsaPS-35" value="&lt;span style=&quot;font-size: 18px;&quot;&gt;&lt;b&gt;Name&lt;/b&gt;&lt;/span&gt;" style="text;html=1;strokeColor=none;fillColor=none;align=center;verticalAlign=middle;whiteSpace=wrap;rounded=0;" vertex="1" parent="1">
          <mxGeometry x="325" y="1960" width="130" height="30" as="geometry" />
        </mxCell>
        <mxCell id="DY-1BtCG_yMDKFojsaPS-36" value="" style="whiteSpace=wrap;html=1;rounded=0;shadow=0;labelBackgroundColor=none;strokeWidth=1;fontFamily=Verdana;fontSize=28;align=center;comic=1;" vertex="1" parent="1">
          <mxGeometry x="350" y="2210" width="330" height="30" as="geometry" />
        </mxCell>
        <mxCell id="DY-1BtCG_yMDKFojsaPS-37" value="&lt;font style=&quot;font-size: 18px;&quot;&gt;&lt;b&gt;Confirm Password&lt;/b&gt;&lt;/font&gt;" style="text;html=1;strokeColor=none;fillColor=none;align=center;verticalAlign=middle;whiteSpace=wrap;rounded=0;" vertex="1" parent="1">
          <mxGeometry x="340" y="2180" width="190" height="30" as="geometry" />
        </mxCell>
        <mxCell id="DY-1BtCG_yMDKFojsaPS-40" value="&lt;font style=&quot;font-size: 18px;&quot;&gt;&lt;b&gt;Role&lt;/b&gt;&lt;/font&gt;" style="text;html=1;strokeColor=none;fillColor=none;align=center;verticalAlign=middle;whiteSpace=wrap;rounded=0;" vertex="1" parent="1">
          <mxGeometry x="340" y="2250" width="130" height="30" as="geometry" />
        </mxCell>
        <mxCell id="DY-1BtCG_yMDKFojsaPS-41" value="" style="ellipse;whiteSpace=wrap;html=1;aspect=fixed;strokeColor=#CCCCCC;fontSize=18;fillColor=#E6E6E6;" vertex="1" parent="1">
          <mxGeometry x="360" y="2280" width="20" height="20" as="geometry" />
        </mxCell>
        <mxCell id="DY-1BtCG_yMDKFojsaPS-42" value="" style="ellipse;whiteSpace=wrap;html=1;aspect=fixed;strokeColor=#CCCCCC;fontSize=18;fillColor=#E6E6E6;" vertex="1" parent="1">
          <mxGeometry x="435" y="2280" width="20" height="20" as="geometry" />
        </mxCell>
        <mxCell id="DY-1BtCG_yMDKFojsaPS-43" value="" style="ellipse;whiteSpace=wrap;html=1;aspect=fixed;strokeColor=#CCCCCC;fontSize=18;fillColor=#E6E6E6;" vertex="1" parent="1">
          <mxGeometry x="585" y="2280" width="20" height="20" as="geometry" />
        </mxCell>
        <mxCell id="DY-1BtCG_yMDKFojsaPS-45" value="&lt;font style=&quot;font-size: 11px;&quot;&gt;&lt;b style=&quot;&quot;&gt;Subject matter expert&lt;/b&gt;&lt;/font&gt;" style="text;html=1;strokeColor=none;fillColor=none;align=center;verticalAlign=middle;whiteSpace=wrap;rounded=0;" vertex="1" parent="1">
          <mxGeometry x="455" y="2275" width="125" height="30" as="geometry" />
        </mxCell>
        <mxCell id="DY-1BtCG_yMDKFojsaPS-47" value="&lt;span style=&quot;font-size: 11px;&quot;&gt;&lt;b&gt;User&lt;br&gt;&lt;/b&gt;&lt;/span&gt;" style="text;html=1;strokeColor=none;fillColor=none;align=center;verticalAlign=middle;whiteSpace=wrap;rounded=0;" vertex="1" parent="1">
          <mxGeometry x="370" y="2275" width="50" height="30" as="geometry" />
        </mxCell>
        <mxCell id="DY-1BtCG_yMDKFojsaPS-48" value="&lt;font style=&quot;font-size: 11px;&quot;&gt;&lt;b style=&quot;&quot;&gt;Pharmacist&lt;/b&gt;&lt;/font&gt;" style="text;html=1;strokeColor=none;fillColor=none;align=center;verticalAlign=middle;whiteSpace=wrap;rounded=0;" vertex="1" parent="1">
          <mxGeometry x="605" y="2275" width="65" height="30" as="geometry" />
        </mxCell>
      </root>
    </mxGraphModel>
  </diagram>
</mxfile>
